id,name,model_id:id,group_id:id,perm_read,perm_write,perm_create,perm_unlink
purchaserequest_manager_ar,Purchase Request Manager Access Right,model_purchasef99_purchaserequest,purchase.group_purchase_manager,1,1,1,1
purchaserequest_user_ar,Purchase Request  User Access Right,model_purchasef99_purchaserequest,purchase.group_purchase_user,1,1,1,1
purchaserequest_f99purchase_ar,Purchase Request  F99 Purchase Access Right,model_purchasef99_purchaserequest,purchasef99_group_f99purchaser,1,1,1,1

purchaserequest_line_manager_ar,Purchase Request Line Manager Access Right,model_purchasef99_purchaserequest_line,purchase.group_purchase_manager,1,1,1,1
purchaserequest_line_user_ar,Purchase Request  Line User Access Right,model_purchasef99_purchaserequest_line,purchase.group_purchase_user,1,1,1,1
purchaserequest_line_f99purchase_ar,Purchase Request Line F99 Purchase Access Right,model_purchasef99_purchaserequest_line,purchasef99_group_f99purchaser,1,1,1,1


purchase_createrfq_public_ar,Purchase Create RFQ Public Access Right,model_purchasef99_createrfq,,1,1,1,1
purchase_createrfq_line_public_ar,Purchase Create RFQ Line Public Access Right,model_purchasef99_createrfq_line,,1,1,1,1